compname,akadba,physaddr,physcity,physstate,physzip,vnumber,loccount,products,exec1,gender1,officermail1,title1,exec2,gender2,officermail2,title2,fnumber,nnumber,web,email,mailaddr,mailcity,mailstate,mailzip,yearestab,distribtyp,ownertype,sales,squarefeet,imports,exec3,gender3,gender3_d,title3,exec4,gender4,gender4_d,title4,exec5,gender5,officermail5,title5,exec6,gender6,officermail6,title6,exec7,gender7,officermail7,title7,exec8,gender8,officermail8,title8,exec9,gender9,officermail9,title9,exec10,gender10,officermail10,title10,parentname,parentcity,parentstat,onumber,header,advertiser,primarysic,sic2,companyid,datasource,bookid,newinyear,priority,addresserror,dpvfootnote,altphone,paddress,pzip5
"E & W TOOL & SUPPLY, INC.",,"465 Fife Rd., P.O. Box 1004",Mulberry,FL,33860,8634253077,22,Distributor of industrial tools & accessories,Steven Trent,M,Q,"Pres., GM",Brian May,M,,Pur. & Sales Mgr.,8634254523,8002262434,www.ewtoolsupply.com,info@ewtoolsupply.com,,,,,1981,L,I,"under $500,000","10,000",N,,,,,,,,,,,,,,,,,,,,,,,,,,,,,,,,,,,,,TO0540,No,5013,,6401,2020FLZZ,ZZWD,1990,5, ,AABB,,,
"NEXAIR, LLC",,403 Zell Dr.,Orlando,FL,32824,4078514711,9,Distributor of compressed gases,Wade Howell,M,Q,Opers. & Plt. Mgr.,,,,,4078512157,,www.nexair.com,info@nexair.com,,,,,1888,R,L,"$500,000-$1Mil","15,000",N,,,,,,,,,,,,,,,,,,,,,,,,,,,,,,,,,"nexAir, LLC",Memphis,TN,9013965050,GA0380,No,5169,,6449,2020FLZZ,ZZWD,1990,9, ,AABB,,"1350 Concourse Ave., Ste. 103",38104
"COMPRESSED AIR SYSTEMS, INC.",,9303 Stannum St.,Tampa,FL,33619,8136268177,43,"Wholesaler of air compressors, vacuum pumps, sandblasting & used industrial equipment, industrial blowers, accessories & railcar gate openers",Brint Waring,M,,"Pres., MIS Mgr.",Orlando Valverde,M,Q,"Dir., Mktg.",8136280187,8006268177,www.compressedairsystems.com,pogo@compressedairsystems.com,,,,,1963,I,I,$6Mil-$10Mil,"30,000",N,Kyle Randall,M,,Sales Mgr.,Dawn Dalton,F,,Acct. Mgr.,Ginger Waring,F,,Hum. Res. Mgr.,Dan Guerra,M,,Pur. Agt.,,,,,,,,,,,,,,,,,,,,,CO1251,No,5084,5085,6521,2020FLZZ,ZZWD,1990,4,S,AAN1,,,
CASPER ENGINEERING CORP.,,4542 S.W. 71st Ave.,Miami,FL,33155,3056298526,7,Distributor of generator parts,Carlos Camps,M,,"Pres., Engrg. & Opers. Mgr.",Elena Camps,F,Q,Hum. Res. & Sales Mgr.,3056664047,,,sales@casperengineering.com,,,,,1976,L,I,"$500,000-$1Mil","5,500",N,,,,,,,,,,,,,,,,,,,,,,,,,,,,,,,,,,,,,GE0349,No,5063,,7748,2020FLZZ,ZZWD,1990,7, ,AABB,,,
MEL-RAY INDUSTRIES,,"2167 Highway 17 S., P.O. Box 505",Crescent City,FL,32112,3866984414,10,Distributor of screen printing frames,Tony Sanchez,M,,Hum. Res. Mgr.,Chris Hannon,F,Q,Sales Rep.,3866984417,8003678834,www.melray.com,sales@melray.com,,,,,1987,L,I,"$500,000-$1Mil","56,000",N,,,,,,,,,,,,,,,,,,,,,,,,,,,,,,,,,,,,,SC0380,No,5046,,12351,2020FLZZ,ZZWD,1991,5, ,AABB,,,
ADVANCED LABELING & MARKING,,15240 N.W. 60th Ave.,Miami Lakes,FL,33014,3055120001,20,"Reseller & distributor of labeling & marking equipment, printers, custom & blank labels, thermal ribbons, ink, markers, inkjet marking devices, label appliers, color label printers & laser marking equipment",Kevin L. Delphus,M,,Pres.,Dennis Delphus,M,Q,"V-P., R & D",3055129099,8004325130,www.advancedlabeling.com,sales@advancedlabeling.com,,,,,1967,N,I,$4Mil,"17,000",N,Sylvia Correa,F,,Off. Mgr.,,,,,,,,,,,,,,,,,,,,,,,,,,,,,,,,,PR0436,No,5084,5112,19577,2020FLZZ,ZZWD,1991,5, ,AABB,,,
"ELECTRO TAPE SPECIALTIES, INC.",,"13221 Byrd Dr., P.O. Box 1014",Odessa,FL,33556,8139202218,19,Distributor of adhesive tapes & protective films,Darren Miller,M,,"Pres., Mktg. Mgr.",Chuck Sincell,M,,"Comp. & Fin., Hum. Res., IT & Opers. Mgr.",8139202272,8009992218,www.electrotape.com,sales@electrotape.com,,,,,1969,N,I,$1Mil-$2.5Mil,"30,000",Y,Lois Golisano,F,Q,Cust. Serv. Mgr.,Debbie Thomas,F,,Cred. Mgr.,Robbie Miller,M,,Traf. Mgr.,,,,,,,,,,,,,,,,,,,,,,,,,TA0520,No,5113,5162,19939,2020FLZZ,ZZWD,1991,5, ,AABB,,,
