compname,akadba,physaddr,physcity,physstate,physzip,vnumber,loccount,products,exec1,gender1,officermail1,title1,exec2,gender2,officermail2,title2,fnumber,nnumber,web,email,mailaddr,mailcity,mailstate,mailzip,yearestab,distribtyp,ownertype,sales,squarefeet,imports,exec3,gender3,gender3_d,title3,exec4,gender4,gender4_d,title4,exec5,gender5,officermail5,title5,exec6,gender6,officermail6,title6,exec7,gender7,officermail7,title7,exec8,gender8,officermail8,title8,exec9,gender9,officermail9,title9,exec10,gender10,officermail10,title10,parentname,parentcity,parentstat,onumber,header,advertiser,primarysic,sic2,companyid,datasource,bookid,newinyear,priority,addresserror,dpvfootnote,altphone,paddress,pzip5,exec11,gender11,officermail11,title11,exec12,gender12,officermail12,title12,exec13,gender13,officermail13,title13,exec14,gender14,officermail14,title14,exec15,gender15,officermail15,title15
The Apparel Group Ltd.,,883 Trinity Dr.,Lewisville,TX,75056,2144693200,120,Distributor of men's & boy's shirts & pants & women's blouses & skirts,John Liu,M,,COO,Brad Campbell,M,,"Dir., Hum. Res.",2144693257,8002466071,,,P.O. Box 952135,Dallas,TX,75395,1985,I,I,over $100Mil,"186,300",Y,Elna Singleton,F,,"Cust. Serv. Mgr., Women's Wear",Sue Kantlehner,F,,"Cust. Serv. Mgr., Women's Wear",Sarina Mayfield,F,Q,Cust. Serv. Rep.,,,,,,,,,,,,,,,,,,,,,,,,,CL0800,No,5136,5137,1273,test_TXa,TXMR,2010,1, ,AAU1,,,,teste11,,,,,,,,,,,d,,,,,,,d,d
"Loadcraft Industries, Ltd.",,"3811 N. Bridge, P.O. Box 1429",Brady,TX,76825,3255972911,50,Mobile drilling & workover rigs,Grady McIver,M,,"Ptnr., Bus. Dev. & Ex. V-P.",Terry McIver,F,,"Pres., CEO",3255970781,8008030183,www.loadcraft.com,grady.mciver@loadcraft.com,,,,,1983,I,I,$8.5Mil-$85Mil,"250,000",N,Charles Hinkle,M,,CFO & COO,Philip Cruts,M,,IT Mgr.,Andrea Perez,F,Q,Pur. Agt.,,,,,,,,,,,,,,,,,,,,,,,,,RI0050,No,3533,,4602,test_TXa,TXMR,2011,3, ,AABB,,,,teste11,m,,fasdfasdf,asd,df,,sd,d,sd,,,d,d,,,,d,d,
Vertical Turbine Specialists,,"1802 E. 50th St., Unit 106",Lubbock,TX,79404,8067435555,88,Metal fabrication of vertical turbine pumps for OEMs,Doug Allen,M,,"Pres., Mktg. Mgr.",Adam Ne,M,,Sales Mgr.,8067435556,8006582163,www.vtsfabs.com,info@vtsfabs.com,,,,,1983,I,I,$8Mil-$15Mil,"215,000",N,Travis Sullivan,M,,Prodn. Mgr.,Cheyanna New,F,,Acctg. & Hum. Res. Mgr.,Kristy O'Grady,F,Q,Off. Mgr.,Nathan Yandell,M,,Qual. Assur. Mgr.,,,,,,,,,,,,,,,,,,,,,PU0420,No,3561,3499,8459,test_TXa,TXMR,1990,3, ,AABB,,,,teste11,m,1,,,,,,,m,,,,,d,,d,,,
"Sonoco Flexible Packaging Co., Inc.",,6501 Texas Central Pkwy.,Waco,TX,76712,2546664777,80,Flexible packaging materials,Rick Brzezinski,M,Q,Plt. Mgr.,Carol Brown,F,,Admn. Mgr.,2546664983,,www.sonoco.com,info@sonoco.com,,,,,2006,N,C,$2.6Mil-$5Mil,,Y,,,,,,,,,,,,,,,,,,,,,,,,,,,,,,,,,Sonoco Products Co.,Hartsville,SC,8433837000,PA0096,No,3089,2671,8476,test_TXa,TXMR,1990,3, ,AABB,,1 N. 2nd St.,29550,,,,,,,,,,,,,,,,,,,,
"Plastics Holdings, Inc.",,1613 N. Bolton St.,Jacksonville,TX,75766,9035861035,50,Plastic pods & black concentrates,Scott Mayfield,M,,Shpg. Mgr.,Evonna Reagan,F,Q,Bookkeeper,9035868864,8009529417,,,,,,,1987,L,I,-,"10,000",N,,,,,,,,,,,,,,,,,,,,,,,,,,,,,,,,,,,,,PL0159,No,3087,,8479,test_TXa,TXMR,1990,3, ,AABB,,,,,,,,,,,,,,,d,,,,,,,,
"Jonell, Inc.",,"900 Industrial Pkwy., P.O. Box 1092",Breckenridge,TX,76424,2545597591,150,Filter elements,Alan Clarke,M,,Pres.,George Clarke,M,Q,"V-P., Sales",2545599863,,www.jonellinc.com,sales@jonellinc.com,,,,,1987,I,L,-,"150,000",N,,,,,,,,,,,,,,,,,,,,,,,,,,,,,,,,,Filtration Group Corp.,Austin,TX,5125937999,FI0315,No,3569,,9155,test_TXa,TXMR,1990,1, ,AABB,,"9442 N. Capital of Texas Hwy., Ste. 390",78759,,,,,,,,,,,,,,,,,,,,
"J-M Mfg. Co., Inc.",JM Eagle,10807 U.S. 59 Hwy.,Wharton,TX,77488,9795325640,160,Plastic pipe,Dwyer Lynch,M,Q,Plt. Mgr.,,,,,9795320016,8006214404,www.jmeagle.com,,,,,,1982,N,I,-,"120,000",N,,,,,,,,,,,,,,,,,,,,,,,,,,,,,,,,,"J-M Mfg. Co., Inc.",Los Angeles,CA,3106938200,PI0245,No,3084,,9161,test_TXa,TXMR,1990,1, ,AABB,,"5200 W. Century Blvd., 10th Fl.",90045,,,,,,,,,,,,,,,,d,,,,
Weatherford International Ltd.,,7587 Highway 75 S.,Huntsville,TX,77340,9362950080,300,Oil & gas field equipment,Bill Cunningham,M,,Plt. Mgr.,Chris Hall,M,,MIS Mgr.,9362916802,,www.weatherford.com,info@weatherford.com,,,,,1989,I,C,-,"60,000",N,Roselle Lamberg,F,,Hum. Res. Mgr.,Jack Setterborg,M,,R & D Mgr.,Jenniffer Rosado,F,Q,Buyer,,,,,,,,,,,,,,,,,,,,,Weatherford International Ltd.,Houston,TX,7138364000,OI0045,No,3533,,9232,test_TXa,TXMR,1990,1, ,AABB,,2000 Saint James Pl.,77056,,,,,,,,,,,,,,,,,,,,
"CFD International, LLC",,5427 FM 546,Princeton,TX,75407,9727362260,14,"Military aircraft components, armament & engineering services",William F. Gordon,M,,Chrm.,Elizabeth Sanderson,F,Q,Vice Chrm.,9727366063,,www.cfdintl.com,sales@cfdintl.com,,,,,1985,I,L,-,"24,000",N,Russell D. Mensch,M,,Pres.,,,,,,,,,,,,,,,,,,,,,,,,,,,,,,,,,AI0260,Yes,3724,3728,9238,test_TXa,TXMR,1990,1, ,AABB,,,,,,,,,f,,,,,,,,,,,d,,d,
